%YAML 1.1
%TAG !u! tag:unity3d.com,2011:
--- !u!1045 &1
EditorBuildSettings:
  m_ObjectHideFlags: 0
  serializedVersion: 2
  m_Scenes:
  - enabled: 1
    path: Assets/Scenes/Welcome.unity
    guid: 9fc0d4010bbf28b4594072e72b8655ab
  - enabled: 1
    path: Assets/Scenes/Introduction.unity
    guid: 5c6ecd1b736298d46acf4a6e58bb2b5c
  - enabled: 1
    path: Assets/Scenes/step1.unity
    guid: 7d262b30791a56841818be9b0666321a
  m_configObjects:
    UnityEditor.XR.ARCore.ARCoreSettings: {fileID: 11400000, guid: 0a7b0498a3ccf234ab869107157a753c, type: 2}
    com.unity.xr.arfoundation.simulation_settings: {fileID: 11400000, guid: 50cc37d899e093d4cadd4be9b9659856, type: 2}
    com.unity.xr.management.loader_settings: {fileID: 11400000, guid: f324d7ba8c743eb47a239d59cb7bf2de, type: 2}
